AS04_Data-join-Visualizing-Date-Time
…
### your code
df_dmajor_105_college <- df_dmajor_105 %>%
    left_join(df_college_join, by = c("dept_original" = "dept")) %>%
    left_join(df_college_join, by = c("dept_dmajor" = "dept")) %>%
    rename(
        college_original = college.x,
        college_dmajor = college.y
           ) %>%
    group_by(college_original, college_dmajor) %>%
    count()

print(df_dmajor_105_college)

### your result should be
#> # A tibble: 70 × 3
#>    college_original college_dmajor     n
#>    <chr>            <chr>          <int>
#>  1 公衛學院         生科學院           1
#>  2 工學院           工學院             6
#>  3 工學院           文學院             3
#>  4 工學院           理學院             7
#>  5 工學院           生農學院           1
#>  6 工學院           社科院             7
#>  7 工學院           管理學院           3
#>  8 工學院           電資學院           3
#>  9 文學院           公衛學院           1
#> 10 文學院           工學院             1
#> # … with 60 more rows

#> # A tibble: 70 × 3
#> # Groups:   college_original, college_dmajor [70]
#>    college_original college_dmajor     n
#>    <chr>            <chr>          <int>
#>  1 公衛學院         生科學院           1
#>  2 工學院           工學院             6
#>  3 工學院           文學院             3
#>  4 工學院           理學院             7
#>  5 工學院           生農學院           1
#>  6 工學院           社科院             7
#>  7 工學院           管理學院           3
#>  8 工學院           電資學院           3
#>  9 文學院           公衛學院           1
#> 10 文學院           工學院             1
#> # ℹ 60 more rows
…
